chord,code
Gb:sus4,4095
Gb:sus2,4088
Gb:min7,4081
Gb:min6,4074
Gb:maj9,4067
Gb:maj7/2,4060
Gb:maj7,4053
Gb:maj6(9)/3,4046
Gb:maj6(9),4039
Gb:maj/b7,4032
Gb:maj/3,4025
Gb:maj/2,4018
Gb:maj(9),4011
Gb:maj,4004
Gb:aug(7),3997
G:sus4,3990
G:sus2,3983
G:min9,3976
G:min7/b7,3969
G:min7/b3,3962
G:min7,3955
G:min11,3948
G:min(9),3941
G:min,3934
G:maj9/5,3927
G:maj9/3,3920
G:maj9,3913
G:maj7/3,3906
G:maj7,3899
G:maj6/3,3892
G:maj6,3885
G:maj/b7,3878
G:maj/5,3871
G:maj/3,3864
G:maj/2,3857
G:maj(9)/5,3850
G:maj(9),3843
G:maj(13),3836
G:maj(11),3829
G:maj,3822
G:dim,3815
G:7/3,3808
G:7(b9)/3,3801
G:7(b13)/3,3794
G:7(b13),3787
"G:7(*3,4)",3780
G:7(#11)/#4,3773
G:7,3766
"G:(1,5)",3759
"G:(1,4,5)",3752
G:(1),3745
G#:min9,3738
G#:min7/b7,3731
G#:min7/4,3724
G#:min7,3717
G#:min6,3710
G#:min11,3703
G#:min/b7,3696
G#:min/b3,3689
G#:min,3682
G#:maj7,3675
G#:maj,3668
G#:7,3661
"G#:(1,5)",3654
F:sus4,3647
F:sus2,3640
F:min9,3633
F:min7/b7,3626
F:min7(11),3619
F:min7,3612
F:min6,3605
F:min/b3,3598
F:min/5,3591
F:min(9)/b3,3584
F:min,3577
F:maj9,3570
F:maj7/5,3563
F:maj7/3,3556
"F:maj7(2,*3)",3549
F:maj7,3542
F:maj6(9),3535
F:maj6,3528
F:maj/4,3521
F:maj/3,3514
F:maj/2,3507
F:maj(9),3500
F:maj(*5),3493
F:maj,3486
F:dim,3479
F:aug,3472
F:7(b9),3465
"F:7(11,b9)",3458
"F:7(*3,4)",3451
"F:7(#9,b13)",3444
F:7(#9),3437
F:7,3430
"F:(1,5)",3423
"F:(1,4,5,b7)",3416
"F:(1,3,#5,b7,#9)",3409
"F:(1,2,5,b7)",3402
"F:(1,2,5,7)",3395
F#:sus4,3388
F#:min9,3381
F#:min7/b7,3374
F#:min7(9),3367
F#:min7(11),3360
F#:min7,3353
F#:min11,3346
F#:min/5,3339
F#:min/4,3332
F#:min(9),3325
F#:min,3318
F#:maj7,3311
F#:maj/5,3304
F#:maj/3,3297
F#:maj(6),3290
F#:maj(2),3283
F#:maj,3276
F#:hdim7,3269
F#:7/b7,3262
F#:7(b13),3255
F#:7(13),3248
F#:7(11),3241
"F#:7(*3,4,13)",3234
"F#:7(#9,b13)",3227
F#:7,3220
"F#:(1,5)",3213
F,3206
Eb:sus4,3199
Eb:sus2,3192
Eb:min9,3185
Eb:min7/4,3178
Eb:min7(11),3171
Eb:min7,3164
Eb:min11,3157
Eb:min(9),3150
Eb:min(6),3143
Eb:min,3136
Eb:maj9,3129
Eb:maj7/7,3122
Eb:maj7/3,3115
Eb:maj7,3108
Eb:maj6,3101
Eb:maj/b7,3094
Eb:maj/5,3087
Eb:maj/3,3080
Eb:maj/2,3073
Eb:maj(9),3066
"Eb:maj(6,9)",3059
Eb:maj(2)/3,3052
Eb:maj(2),3045
Eb:maj(#11),3038
Eb:maj,3031
Eb:aug/2,3024
Eb:9,3017
Eb:7/3,3010
"Eb:7(*3,4)",3003
Eb:7,2996
"Eb:(6,9)",2989
E:sus4,2982
E:sus2(6),2975
E:min9,2968
E:min7/b3,2961
E:min7(11),2954
E:min7,2947
E:min11,2940
E:min/b3,2933
E:min(9),2926
E:min(6),2919
E:min,2912
E:maj9,2905
E:maj7/5,2898
E:maj7/3,2891
E:maj7,2884
E:maj6,2877
E:maj/b7,2870
E:maj/7,2863
E:maj/5,2856
E:maj/4,2849
E:maj/3,2842
E:maj/2,2835
E:maj(9)/3,2828
E:maj(9),2821
E:maj(2),2814
E:maj(11),2807
E:maj(*3)/5,2800
E:maj(*3),2793
E:maj,2786
E:hdim7,2779
E:dim7,2772
E:aug,2765
E:9(11),2758
"E:9(*3,4)",2751
E:9,2744
E:7/5,2737
E:7/3,2730
"E:7(b9,b13)",2723
E:7(11),2716
"E:7(*3,4)",2709
E:7(#9),2702
E:7,2695
"E:(1,5,9)",2688
"E:(1,5)",2681
"E:(1,4,5)",2674
"E:(1,3,5,9)",2667
"E:(1,2,5,b7)",2660
E#:hdim7,2653
Db:sus4,2646
Db:sus2/7,2639
Db:sus2,2632
Db:min(6),2625
Db:min,2618
Db:maj9,2611
Db:maj7(9),2604
Db:maj7(2),2597
Db:maj7(*3),2590
Db:maj7,2583
Db:maj6,2576
Db:maj/b7,2569
Db:maj/5,2562
Db:maj/4,2555
Db:maj/3,2548
Db:maj/2,2541
Db:maj(9)/7,2534
Db:maj(9),2527
"Db:maj(6,9)",2520
Db:maj(2),2513
Db:maj,2506
Db:9,2499
Db:7/3,2492
Db:7,2485
"Db:(1,3,b5)",2478
D:sus4/5,2471
D:sus4,2464
D:sus2,2457
D:min9,2450
D:min7/b7,2443
D:min7/4,2436
D:min7,2429
D:min6/5,2422
D:min6,2415
D:min11,2408
D:min/b3,2401
D:min(9),2394
D:min(6)/5,2387
D:min(6),2380
D:min(11),2373
D:min(*5),2366
D:min,2359
D:maj9,2352
D:maj7/3,2345
D:maj7,2338
D:maj6/3,2331
"D:maj6(9,11)",2324
D:maj6(9),2317
D:maj6,2310
D:maj13,2303
D:maj/b7,2296
D:maj/5,2289
D:maj/4,2282
D:maj/3,2275
D:maj/2,2268
D:maj(9)/3,2261
D:maj(9),2254
D:maj(2),2247
D:maj(11),2240
D:maj(*3)/7,2233
D:maj,2226
D:hdim7,2219
D:dim7,2212
D:dim,2205
D:9(13),2198
"D:9(*3,4)",2191
D:9,2184
D:7/b7,2177
D:7/3,2170
D:7(b9),2163
D:7(b13),2156
"D:7(2,*3,13)",2149
D:7(13),2142
D:7(11),2135
"D:7(*3,4)",2128
D:7,2121
"D:(1,5)/5",2114
"D:(1,5)",2107
"D:(1,4,5)",2100
D#:min7/b7,2093
D#:min7,2086
D#:min/b7,2079
D#:min/3,2072
"D#:min(1,b3,b5,b7)",2065
D#:min,2058
D#:maj/3,2051
D#:maj,2044
D#:hdim7,2037
D#:dim7,2030
D#:dim,2023
D#:7/3,2016
"D#:7(#9,b13)",2009
D#:7,2002
Cb:maj7,1995
Cb:maj/2,1988
Cb:maj(9),1981
Cb:maj,1974
C:sus4,1967
C:min9,1960
C:min7/5,1953
C:min7(b5),1946
C:min7(11),1939
C:min7,1932
C:min,1925
C:maj9(#11),1918
C:maj9,1911
C:maj7(9),1904
C:maj7,1897
C:maj6,1890
C:maj/b7,1883
C:maj/5,1876
C:maj/4,1869
C:maj/3,1862
C:maj/2,1855
C:maj(9),1848
C:maj(*5),1841
C:maj(*3)/5,1834
C:maj,1827
C:hdim7,1820
C:dim7,1813
C:dim,1806
"C:9(*3,4,13)",1799
"C:9(*3,4)",1792
C:9,1785
"C:7(2,*3,*5,#11)",1778
"C:7(2,*3)",1771
"C:7(#9,b13)",1764
C:7,1757
"C:(1,5,#11)",1750
"C:(1,5)",1743
"C:(1,3,b5,b7,9)",1736
"C:(1,#11)",1729
C:(1),1722
C#:sus4,1715
C#:min9(11),1708
C#:min9,1701
C#:min7/5,1694
C#:min7(9),1687
C#:min7(11),1680
C#:min7,1673
C#:min6,1666
C#:min11,1659
C#:min/b3,1652
C#:min/5,1645
C#:min(b13),1638
C#:min(6)/5,1631
C#:min(11),1624
C#:min,1617
C#:maj/b7,1610
C#:maj/3,1603
C#:maj,1596
C#:hdim7,1589
C#:7/3,1582
C#:7(11),1575
"C#:7(*3,4)",1568
C#:7(#9),1561
C#:7,1554
"C#:(1,5)",1547
Bb:sus4,1540
Bb:sus2/7,1533
Bb:sus2,1526
Bb:min9,1519
Bb:min7/b7,1512
Bb:min7/5,1505
Bb:min7/4,1498
Bb:min7(11)/b7,1491
Bb:min7(11),1484
Bb:min7,1477
Bb:min6,1470
Bb:min/7,1463
Bb:min(9),1456
Bb:min,1449
Bb:maj9,1442
Bb:maj7/2,1435
Bb:maj7,1428
Bb:maj/b7,1421
Bb:maj/5,1414
Bb:maj/4,1407
Bb:maj/3,1400
Bb:maj/2,1393
Bb:maj(9),1386
Bb:maj(13),1379
Bb:maj(11),1372
Bb:maj(*5),1365
Bb:maj,1358
Bb:9(b13),1351
Bb:7/b7,1344
Bb:7/5,1337
Bb:7(b9),1330
Bb:7(b13),1323
Bb:7(9),1316
Bb:7(13),1309
Bb:7(11),1302
"Bb:7(*3,4)",1295
Bb:7(#11),1288
Bb:7,1281
"Bb:(1,5)",1274
"Bb:(1,3)",1267
"Bb:(1,2,4,b7)",1260
"Bb:(1,2)",1253
B:sus4(9),1246
B:sus4,1239
B:sus2,1232
B:min9,1225
B:min7/b3,1218
B:min7/4,1211
B:min7(9),1204
B:min7(13),1197
B:min7(11),1190
B:min7,1183
B:min11,1176
B:min/5,1169
B:min(9),1162
B:min(6),1155
B:min(11),1148
B:min,1141
B:maj9(*3),1134
B:maj7/6,1127
B:maj7,1120
B:maj6,1113
B:maj/b7,1106
B:maj/5,1099
B:maj/4,1092
B:maj/3,1085
B:maj/2,1078
B:maj(6),1071
B:maj(13),1064
"B:maj(11,13)",1057
B:maj(11),1050
B:maj,1043
B:hdim7,1036
B:dim7,1029
B:9(11),1022
B:7(b9),1015
B:7(b13),1008
"B:7(2,*3)",1001
B:7(13),994
B:7(11),987
"B:7(*5,b13)",980
"B:7(*3,4)",973
B:7(#11),966
B:7,959
"B:(1,5)/5",952
"B:(1,5)",945
"B:(1,4,b7,9)",938
B:(1),931
Ab:sus4,924
Ab:sus2,917
Ab:minmaj7(13),910
Ab:min7,903
Ab:min6/3,896
Ab:min6,889
Ab:min/b3,882
Ab:min/7,875
Ab:min,868
Ab:maj9,861
Ab:maj7(9),854
Ab:maj7,847
Ab:maj6,840
Ab:maj/5,833
Ab:maj/3,826
Ab:maj/2,819
Ab:maj(9)/2,812
Ab:maj(9),805
Ab:maj(6),798
Ab:maj(11),791
Ab:maj,784
Ab:dim7,777
Ab:9(13),770
"Ab:7(*3,4,b9)",763
"Ab:7(*3,4)",756
Ab:7,749
A:sus4,742
A:sus2,735
A:min9(11),728
A:min9,721
A:min7/b7,714
A:min7/5,707
A:min7,700
A:min6/5,693
A:min6/3,686
A:min6,679
A:min/b7,672
A:min/5,665
A:min/3,658
A:min(9),651
A:min,644
A:maj9(13),637
A:maj9,630
A:maj7/5,623
A:maj7/3,616
A:maj7,609
A:maj6,602
A:maj/b7,595
A:maj/7,588
A:maj/5,581
A:maj/3,574
A:maj/2,567
A:maj(9)/3,560
A:maj(9),553
A:maj(6),546
A:maj(2),539
A:maj(11),532
A:maj,525
A:hdim7,518
A:dim,511
A:aug/b7,504
"A:9(*3,4)",497
A:7/3,490
A:7(b9),483
A:7(b13)/3,476
A:7(b13),469
"A:7(2,*3,13)",462
A:7(13),455
"A:7(11,13)",448
"A:7(*3,4,13)/b2",441
"A:7(*3,4,13)",434
"A:7(*3,4)",427
A:7(*3),420
A:7(#11),413
A:7,406
"A:(1,5)/5",399
"A:(1,5)",392
A#:sus4,385
A#:min7,378
A#:min/5,371
A#:min,364
A#:maj9(*3),357
A#:maj,350
A#:hdim7,343
A#:dim,336
"A#:7(*5,b13)",329
A#:7,322
N,0
